module gitlab.com/anondhateb/backend

go 1.14

require (
	github.com/golang/protobuf v1.4.1
	golang.org/x/net v0.0.0-20200505041828-1ed23360d12c // indirect
	golang.org/x/sys v0.0.0-20200501145240-bc7a7d42d5c3 // indirect
	golang.org/x/text v0.3.2 // indirect
	google.golang.org/genproto v0.0.0-20200430143042-b979b6f78d84 // indirect
	google.golang.org/grpc v1.29.1
)
